%YAML 1.1
%TAG !u! tag:unity3d.com,2011:
--- !u!1001 &3069202347271320580
PrefabInstance:
  m_ObjectHideFlags: 0
  serializedVersion: 2
  m_Modification:
    m_TransformParent: {fileID: 0}
    m_Modifications:
    - target: {fileID: 2126876144063327353, guid: 8babc1f80b237ea45a650166b3b13d62, type: 3}
      propertyPath: m_RootOrder
      value: 0
      objectReference: {fileID: 0}
    - target: {fileID: 2126876144063327353, guid: 8babc1f80b237ea45a650166b3b13d62, type: 3}
      propertyPath: m_LocalPosition.x
      value: 2.449186
      objectReference: {fileID: 0}
    - target: {fileID: 2126876144063327353, guid: 8babc1f80b237ea45a650166b3b13d62, type: 3}
      propertyPath: m_LocalPosition.y
      value: 1.0154512
      objectReference: {fileID: 0}
    - target: {fileID: 2126876144063327353, guid: 8babc1f80b237ea45a650166b3b13d62, type: 3}
      propertyPath: m_LocalPosition.z
      value: 0
      objectReference: {fileID: 0}
    - target: {fileID: 2126876144063327353, guid: 8babc1f80b237ea45a650166b3b13d62, type: 3}
      propertyPath: m_LocalRotation.w
      value: 1
      objectReference: {fileID: 0}
    - target: {fileID: 2126876144063327353, guid: 8babc1f80b237ea45a650166b3b13d62, type: 3}
      propertyPath: m_LocalRotation.x
      value: 0
      objectReference: {fileID: 0}
    - target: {fileID: 2126876144063327353, guid: 8babc1f80b237ea45a650166b3b13d62, type: 3}
      propertyPath: m_LocalRotation.y
      value: 0
      objectReference: {fileID: 0}
    - target: {fileID: 2126876144063327353, guid: 8babc1f80b237ea45a650166b3b13d62, type: 3}
      propertyPath: m_LocalRotation.z
      value: 0
      objectReference: {fileID: 0}
    - target: {fileID: 2126876144063327353, guid: 8babc1f80b237ea45a650166b3b13d62, type: 3}
      propertyPath: m_LocalEulerAnglesHint.x
      value: 0
      objectReference: {fileID: 0}
    - target: {fileID: 2126876144063327353, guid: 8babc1f80b237ea45a650166b3b13d62, type: 3}
      propertyPath: m_LocalEulerAnglesHint.y
      value: 0
      objectReference: {fileID: 0}
    - target: {fileID: 2126876144063327353, guid: 8babc1f80b237ea45a650166b3b13d62, type: 3}
      propertyPath: m_LocalEulerAnglesHint.z
      value: 0
      objectReference: {fileID: 0}
    - target: {fileID: 2126876144063327354, guid: 8babc1f80b237ea45a650166b3b13d62, type: 3}
      propertyPath: looping
      value: 0
      objectReference: {fileID: 0}
    - target: {fileID: 2126876144063327354, guid: 8babc1f80b237ea45a650166b3b13d62, type: 3}
      propertyPath: ShapeModule.radius.value
      value: 0.75
      objectReference: {fileID: 0}
    - target: {fileID: 2126876144063327354, guid: 8babc1f80b237ea45a650166b3b13d62, type: 3}
      propertyPath: InitialModule.startColor.maxColor.b
      value: 0.09932356
      objectReference: {fileID: 0}
    - target: {fileID: 2126876144063327354, guid: 8babc1f80b237ea45a650166b3b13d62, type: 3}
      propertyPath: InitialModule.startColor.maxColor.g
      value: 0.49924868
      objectReference: {fileID: 0}
    - target: {fileID: 2126876144063327354, guid: 8babc1f80b237ea45a650166b3b13d62, type: 3}
      propertyPath: InitialModule.startColor.maxColor.r
      value: 0.8490566
      objectReference: {fileID: 0}
    - target: {fileID: 2126876144063327354, guid: 8babc1f80b237ea45a650166b3b13d62, type: 3}
      propertyPath: InitialModule.startColor.minColor.b
      value: 0.05411173
      objectReference: {fileID: 0}
    - target: {fileID: 2126876144063327354, guid: 8babc1f80b237ea45a650166b3b13d62, type: 3}
      propertyPath: InitialModule.startColor.minColor.g
      value: 0.8883549
      objectReference: {fileID: 0}
    - target: {fileID: 2126876144063327354, guid: 8babc1f80b237ea45a650166b3b13d62, type: 3}
      propertyPath: InitialModule.startColor.minColor.r
      value: 0.8962264
      objectReference: {fileID: 0}
    - target: {fileID: 2126876144063327354, guid: 8babc1f80b237ea45a650166b3b13d62, type: 3}
      propertyPath: EmissionModule.m_Bursts.Array.data[0].countCurve.scalar
      value: 75
      objectReference: {fileID: 0}
    - target: {fileID: 2126876144063327355, guid: 8babc1f80b237ea45a650166b3b13d62, type: 3}
      propertyPath: m_Materials.Array.data[0]
      value: 
      objectReference: {fileID: 10308, guid: 0000000000000000f000000000000000, type: 0}
    - target: {fileID: 2126876144063327356, guid: 8babc1f80b237ea45a650166b3b13d62, type: 3}
      propertyPath: m_Name
      value: Gem Burst - Bomb
      objectReference: {fileID: 0}
    m_RemovedComponents: []
  m_SourcePrefab: {fileID: 100100000, guid: 8babc1f80b237ea45a650166b3b13d62, type: 3}
