%YAML 1.1
%TAG !u! tag:unity3d.com,2011:
--- !u!1001 &4076814757123053239
PrefabInstance:
  m_ObjectHideFlags: 0
  serializedVersion: 2
  m_Modification:
    m_TransformParent: {fileID: 0}
    m_Modifications:
    - target: {fileID: 222841072879687952, guid: 9f2998d57090b2e4f869cc8b65055b8a, type: 3}
      propertyPath: m_Sprite
      value: 
      objectReference: {fileID: 21300000, guid: 15913fd90bd479a45a568c3067a75c5d, type: 3}
    - target: {fileID: 222841072879687953, guid: 9f2998d57090b2e4f869cc8b65055b8a, type: 3}
      propertyPath: m_Name
      value: Gem - Red Variant
      objectReference: {fileID: 0}
    - target: {fileID: 222841072879687958, guid: 9f2998d57090b2e4f869cc8b65055b8a, type: 3}
      propertyPath: type
      value: 2
      objectReference: {fileID: 0}
    - target: {fileID: 222841072879687958, guid: 9f2998d57090b2e4f869cc8b65055b8a, type: 3}
      propertyPath: destroyEffect
      value: 
      objectReference: {fileID: 5049085069946448557, guid: fc62f3ef9cb6a914faf38d3b183b037e, type: 3}
    - target: {fileID: 222841072879687959, guid: 9f2998d57090b2e4f869cc8b65055b8a, type: 3}
      propertyPath: m_RootOrder
      value: 0
      objectReference: {fileID: 0}
    - target: {fileID: 222841072879687959, guid: 9f2998d57090b2e4f869cc8b65055b8a, type: 3}
      propertyPath: m_LocalPosition.x
      value: 2.99
      objectReference: {fileID: 0}
    - target: {fileID: 222841072879687959, guid: 9f2998d57090b2e4f869cc8b65055b8a, type: 3}
      propertyPath: m_LocalPosition.y
      value: -1.13
      objectReference: {fileID: 0}
    - target: {fileID: 222841072879687959, guid: 9f2998d57090b2e4f869cc8b65055b8a, type: 3}
      propertyPath: m_LocalPosition.z
      value: 0
      objectReference: {fileID: 0}
    - target: {fileID: 222841072879687959, guid: 9f2998d57090b2e4f869cc8b65055b8a, type: 3}
      propertyPath: m_LocalRotation.w
      value: 1
      objectReference: {fileID: 0}
    - target: {fileID: 222841072879687959, guid: 9f2998d57090b2e4f869cc8b65055b8a, type: 3}
      propertyPath: m_LocalRotation.x
      value: 0
      objectReference: {fileID: 0}
    - target: {fileID: 222841072879687959, guid: 9f2998d57090b2e4f869cc8b65055b8a, type: 3}
      propertyPath: m_LocalRotation.y
      value: 0
      objectReference: {fileID: 0}
    - target: {fileID: 222841072879687959, guid: 9f2998d57090b2e4f869cc8b65055b8a, type: 3}
      propertyPath: m_LocalRotation.z
      value: 0
      objectReference: {fileID: 0}
    - target: {fileID: 222841072879687959, guid: 9f2998d57090b2e4f869cc8b65055b8a, type: 3}
      propertyPath: m_LocalEulerAnglesHint.x
      value: 0
      objectReference: {fileID: 0}
    - target: {fileID: 222841072879687959, guid: 9f2998d57090b2e4f869cc8b65055b8a, type: 3}
      propertyPath: m_LocalEulerAnglesHint.y
      value: 0
      objectReference: {fileID: 0}
    - target: {fileID: 222841072879687959, guid: 9f2998d57090b2e4f869cc8b65055b8a, type: 3}
      propertyPath: m_LocalEulerAnglesHint.z
      value: 0
      objectReference: {fileID: 0}
    - target: {fileID: 2290880128942569772, guid: 9f2998d57090b2e4f869cc8b65055b8a, type: 3}
      propertyPath: m_SpriteTilingProperty.oldSize.x
      value: 0.8102564
      objectReference: {fileID: 0}
    - target: {fileID: 2290880128942569772, guid: 9f2998d57090b2e4f869cc8b65055b8a, type: 3}
      propertyPath: m_SpriteTilingProperty.oldSize.y
      value: 0.9358974
      objectReference: {fileID: 0}
    m_RemovedComponents: []
  m_SourcePrefab: {fileID: 100100000, guid: 9f2998d57090b2e4f869cc8b65055b8a, type: 3}
